<?xml version="1.0" encoding="UTF-8" standalone="no"?>
<!-- Created with Inkscape (http://www.inkscape.org/) -->

<svg
   xmlns:dc="http://purl.org/dc/elements/1.1/"
   xmlns:cc="http://creativecommons.org/ns#"
   xmlns:rdf="http://www.w3.org/1999/02/22-rdf-syntax-ns#"
   xmlns:svg="http://www.w3.org/2000/svg"
   xmlns="http://www.w3.org/2000/svg"
   xmlns:sodipodi="http://sodipodi.sourceforge.net/DTD/sodipodi-0.dtd"
   xmlns:inkscape="http://www.inkscape.org/namespaces/inkscape"
   width="235.9118mm"
   height="35.420528mm"
   viewBox="0 0 835.90797 125.50579"
   id="svg10222"
   version="1.1"
   inkscape:version="0.91 r13725"
   sodipodi:docname="overlap.svg">
  <defs
     id="defs10224">
    <marker
       inkscape:isstock="true"
       style="overflow:visible"
       id="marker4830"
       refX="0"
       refY="0"
       orient="auto"
       inkscape:stockid="Arrow2Lstart">
      <path
         transform="matrix(1.1,0,0,1.1,1.1,0)"
         d="M 8.7185878,4.0337352 -2.2072895,0.01601326 8.7185884,-4.0017078 c -1.7454984,2.3720609 -1.7354408,5.6174519 -6e-7,8.035443 z"
         style="fill:#000000;fill-opacity:1;fill-rule:evenodd;stroke:#000000;stroke-width:0.625;stroke-linejoin:round;stroke-opacity:1"
         id="path4832"
         inkscape:connector-curvature="0" />
    </marker>
    <marker
       inkscape:stockid="Arrow2Lstart"
       orient="auto"
       refY="0"
       refX="0"
       id="Arrow2Lstart"
       style="overflow:visible"
       inkscape:isstock="true"
       inkscape:collect="always">
      <path
         id="path4302"
         style="fill:#000000;fill-opacity:1;fill-rule:evenodd;stroke:#000000;stroke-width:0.625;stroke-linejoin:round;stroke-opacity:1"
         d="M 8.7185878,4.0337352 -2.2072895,0.01601326 8.7185884,-4.0017078 c -1.7454984,2.3720609 -1.7354408,5.6174519 -6e-7,8.035443 z"
         transform="matrix(1.1,0,0,1.1,1.1,0)"
         inkscape:connector-curvature="0" />
    </marker>
    <marker
       inkscape:stockid="Arrow2Lstart"
       orient="auto"
       refY="0"
       refX="0"
       id="Arrow2Lstart-0"
       style="overflow:visible"
       inkscape:isstock="true">
      <path
         inkscape:connector-curvature="0"
         id="path4302-9"
         style="fill:#000000;fill-opacity:1;fill-rule:evenodd;stroke:#000000;stroke-width:0.625;stroke-linejoin:round;stroke-opacity:1"
         d="M 8.7185878,4.0337352 -2.2072895,0.01601326 8.7185884,-4.0017078 c -1.7454984,2.3720609 -1.7354408,5.6174519 -6e-7,8.035443 z"
         transform="matrix(1.1,0,0,1.1,1.1,0)" />
    </marker>
    <marker
       inkscape:stockid="Arrow2Lstart"
       orient="auto"
       refY="0"
       refX="0"
       id="Arrow2Lstart-0-8"
       style="overflow:visible"
       inkscape:isstock="true">
      <path
         inkscape:connector-curvature="0"
         id="path4302-9-7"
         style="fill:#000000;fill-opacity:1;fill-rule:evenodd;stroke:#000000;stroke-width:0.625;stroke-linejoin:round;stroke-opacity:1"
         d="M 8.7185878,4.0337352 -2.2072895,0.01601326 8.7185884,-4.0017078 c -1.7454984,2.3720609 -1.7354408,5.6174519 -6e-7,8.035443 z"
         transform="matrix(1.1,0,0,1.1,1.1,0)" />
    </marker>
    <marker
       inkscape:stockid="Arrow2Lstart"
       orient="auto"
       refY="0"
       refX="0"
       id="Arrow2Lstart-9"
       style="overflow:visible"
       inkscape:isstock="true">
      <path
         inkscape:connector-curvature="0"
         id="path4302-2"
         style="fill:#000000;fill-opacity:1;fill-rule:evenodd;stroke:#000000;stroke-width:0.625;stroke-linejoin:round;stroke-opacity:1"
         d="M 8.7185878,4.0337352 -2.2072895,0.01601326 8.7185884,-4.0017078 c -1.7454984,2.3720609 -1.7354408,5.6174519 -6e-7,8.035443 z"
         transform="matrix(1.1,0,0,1.1,1.1,0)" />
    </marker>
  </defs>
  <sodipodi:namedview
     id="base"
     pagecolor="#ffffff"
     bordercolor="#666666"
     borderopacity="1.0"
     inkscape:pageopacity="0.0"
     inkscape:pageshadow="2"
     inkscape:zoom="0.98994949"
     inkscape:cx="465.49034"
     inkscape:cy="155.35717"
     inkscape:document-units="px"
     inkscape:current-layer="layer1"
     showgrid="false"
     fit-margin-top="0"
     fit-margin-left="0"
     fit-margin-right="0"
     fit-margin-bottom="0"
     inkscape:window-width="1920"
     inkscape:window-height="1007"
     inkscape:window-x="0"
     inkscape:window-y="0"
     inkscape:window-maximized="1" />
  <metadata
     id="metadata10227">
    <rdf:RDF>
      <cc:Work
         rdf:about="">
        <dc:format>image/svg+xml</dc:format>
        <dc:type
           rdf:resource="http://purl.org/dc/dcmitype/StillImage" />
        <dc:title></dc:title>
      </cc:Work>
    </rdf:RDF>
  </metadata>
  <g
     inkscape:groupmode="layer"
     id="layer2"
     inkscape:label="boxes"
     transform="translate(-54.874581,-196.10883)" />
  <g
     inkscape:label="Layer 1"
     inkscape:groupmode="layer"
     id="layer1"
     transform="translate(-47.926376,85.73068)">
    <g
       id="g4539"
       transform="translate(0,-240.60919)">
      <rect
         style="display:inline;fill:#f3bdbd;fill-opacity:0.9691721;stroke:none;stroke-width:0.5;stroke-linejoin:miter;stroke-miterlimit:4;stroke-dasharray:none;stroke-dashoffset:0;stroke-opacity:1"
         id="rect6186-7-1-1-1-6-4-9-8-6-6"
         width="60.61319"
         height="19.021729"
         x="78.024185"
         y="264.35757"
         transform="translate(-6.9482042,-281.83951)" />
      <text
         sodipodi:linespacing="125%"
         id="text4216"
         y="-2.6134052"
         x="74.770027"
         style="font-style:normal;font-variant:normal;font-weight:normal;font-stretch:normal;font-size:15px;line-height:125%;font-family:'Droid Sans Mono';-inkscape-font-specification:'Droid Sans Mono';letter-spacing:0px;word-spacing:0px;fill:#000000;fill-opacity:1;stroke:none;stroke-width:1px;stroke-linecap:butt;stroke-linejoin:miter;stroke-opacity:1"
         xml:space="preserve"><tspan
           y="-2.6134052"
           x="74.770027"
           id="tspan4218"
           sodipodi:role="line">ACGTAG</tspan></text>
    </g>
    <g
       id="g4533"
       transform="translate(-33.905838,-235.55845)">
      <rect
         style="display:inline;fill:#f3bdbd;fill-opacity:0.9691721;stroke:none;stroke-width:0.5;stroke-linejoin:miter;stroke-miterlimit:4;stroke-dasharray:none;stroke-dashoffset:0;stroke-opacity:1"
         id="rect6186-7-1-1-1-6-4-9-8-4-9-9-5"
         width="18.82748"
         height="19.021742"
         x="177.59335"
         y="259.30682"
         transform="translate(-6.9482042,-281.83951)" />
      <text
         sodipodi:linespacing="125%"
         id="text4220"
         y="-7.6641493"
         x="175.62407"
         style="font-style:normal;font-variant:normal;font-weight:normal;font-stretch:normal;font-size:15px;line-height:125%;font-family:'Droid Sans Mono';-inkscape-font-specification:'Droid Sans Mono';letter-spacing:0px;word-spacing:0px;fill:#000000;fill-opacity:1;stroke:none;stroke-width:1px;stroke-linecap:butt;stroke-linejoin:miter;stroke-opacity:1"
         xml:space="preserve"><tspan
           y="-7.6641493"
           x="175.62407"
           id="tspan4222"
           sodipodi:role="line">G</tspan></text>
    </g>
    <g
       id="g4561"
       transform="translate(-21.056832,-240.83521)">
      <rect
         y="-17.255917"
         x="181.67377"
         height="19.021729"
         width="60.61319"
         id="rect6186-7-1-1-1-6-4-9-8-6-6-7"
         style="display:inline;fill:#f3bdbd;fill-opacity:0.9691721;stroke:none;stroke-width:0.5;stroke-linejoin:miter;stroke-miterlimit:4;stroke-dasharray:none;stroke-dashoffset:0;stroke-opacity:1" />
      <text
         sodipodi:linespacing="125%"
         id="text4224"
         y="-2.3873863"
         x="189.50233"
         style="font-style:normal;font-variant:normal;font-weight:normal;font-stretch:normal;font-size:15px;line-height:125%;font-family:'Droid Sans Mono';-inkscape-font-specification:'Droid Sans Mono';letter-spacing:0px;word-spacing:0px;fill:#000000;fill-opacity:1;stroke:none;stroke-width:1px;stroke-linecap:butt;stroke-linejoin:miter;stroke-opacity:1"
         xml:space="preserve"><tspan
           y="-2.3873863"
           x="189.50233"
           id="tspan4226"
           sodipodi:role="line">TGCAT</tspan></text>
    </g>
    <g
       id="g4583"
       transform="translate(-23.999985,-239.44645)">
      <rect
         style="fill:#d0ebf2;fill-opacity:1;stroke:none;stroke-width:0.5;stroke-linejoin:miter;stroke-miterlimit:4;stroke-dasharray:none;stroke-dashoffset:0;stroke-opacity:1"
         id="rect6186-7-1-1-1-6-0-8-9-8"
         width="185.13019"
         height="19.021742"
         x="257.22845"
         y="263.19482"
         transform="translate(-6.9482042,-281.83951)" />
      <text
         sodipodi:linespacing="125%"
         id="text4228"
         y="-3.8164325"
         x="254.94861"
         style="font-style:normal;font-variant:normal;font-weight:normal;font-stretch:normal;font-size:15px;line-height:125%;font-family:'Droid Sans Mono';-inkscape-font-specification:'Droid Sans Mono';letter-spacing:0px;word-spacing:0px;fill:#000000;fill-opacity:1;stroke:none;stroke-width:1px;stroke-linecap:butt;stroke-linejoin:miter;stroke-opacity:1"
         xml:space="preserve"><tspan
           y="-3.8164325"
           x="254.94861"
           id="tspan4230"
           sodipodi:role="line">ACGTACGT...</tspan></text>
    </g>
    <g
       id="g4626"
       transform="translate(76,-239.40616)">
      <rect
         style="display:inline;fill:#a6d2d2;fill-opacity:1;stroke:none;stroke-width:0.5;stroke-linejoin:miter;stroke-miterlimit:4;stroke-dasharray:none;stroke-dashoffset:0;stroke-opacity:1"
         id="rect6186-7-1-1-1-6-8-7-85-8-55-5"
         width="18.5"
         height="19.021729"
         x="-532.47308"
         y="263.15454"
         transform="matrix(-1,0,0,1,-6.9482042,-281.83951)" />
      <text
         sodipodi:linespacing="125%"
         id="text4232"
         y="-3.8200946"
         x="511.78513"
         style="font-style:normal;font-variant:normal;font-weight:normal;font-stretch:normal;font-size:15px;line-height:125%;font-family:'Droid Sans Mono';-inkscape-font-specification:'Droid Sans Mono';letter-spacing:0px;word-spacing:0px;fill:#000000;fill-opacity:1;stroke:none;stroke-width:1px;stroke-linecap:butt;stroke-linejoin:miter;stroke-opacity:1"
         xml:space="preserve"><tspan
           y="-3.8200946"
           x="511.78513"
           id="tspan4234"
           sodipodi:role="line">T</tspan></text>
    </g>
    <g
       id="g4632"
       transform="translate(66.894333,-239.40616)">
      <rect
         style="display:inline;fill:#a6d2d2;fill-opacity:1;stroke:none;stroke-width:0.5;stroke-linejoin:miter;stroke-miterlimit:4;stroke-dasharray:none;stroke-dashoffset:0;stroke-opacity:1"
         id="rect6186-7-1-1-1-6-8-7-85-8-55-5-3"
         width="131.91032"
         height="19.021729"
         x="-676.93732"
         y="263.15454"
         transform="matrix(-1,0,0,1,-6.9482042,-281.83951)" />
      <text
         sodipodi:linespacing="125%"
         id="text4236"
         y="-3.8493915"
         x="545.56836"
         style="font-style:normal;font-variant:normal;font-weight:normal;font-stretch:normal;font-size:15px;line-height:125%;font-family:'Droid Sans Mono';-inkscape-font-specification:'Droid Sans Mono';letter-spacing:0px;word-spacing:0px;fill:#000000;fill-opacity:1;stroke:none;stroke-width:1px;stroke-linecap:butt;stroke-linejoin:miter;stroke-opacity:1"
         xml:space="preserve"><tspan
           y="-3.8493915"
           x="545.56836"
           id="tspan4238"
           sodipodi:role="line">NNNNNNMMGGACG</tspan></text>
    </g>
    <text
       sodipodi:linespacing="125%"
       id="text7136-4-6"
       y="-246.69801"
       x="-0.04304849"
       style="font-style:normal;font-variant:normal;font-weight:500;font-stretch:normal;font-size:16.10509872px;line-height:125%;font-family:'CMU Serif';-inkscape-font-specification:'CMU Serif Medium';letter-spacing:0px;word-spacing:0px;display:inline;fill:#d72828;fill-opacity:0.9691721;stroke:none;stroke-width:1px;stroke-linecap:butt;stroke-linejoin:miter;stroke-opacity:1"
       xml:space="preserve"><tspan
         style="font-style:normal;font-variant:normal;font-weight:normal;font-stretch:normal;font-family:sans-serif;-inkscape-font-specification:sans-serif"
         y="-246.69801"
         x="-0.04304849"
         id="tspan7138-0-8"
         sodipodi:role="line">p5 read</tspan></text>
    <text
       sodipodi:linespacing="125%"
       id="text7140-3-8"
       y="-240.26944"
       x="510.67123"
       style="font-style:normal;font-variant:normal;font-weight:500;font-stretch:normal;font-size:20.13137245px;line-height:125%;font-family:'CMU Serif';-inkscape-font-specification:'CMU Serif Medium';letter-spacing:0px;word-spacing:0px;display:inline;fill:#008080;fill-opacity:1;stroke:none;stroke-width:1px;stroke-linecap:butt;stroke-linejoin:miter;stroke-opacity:1"
       xml:space="preserve"><tspan
         style="font-style:normal;font-variant:normal;font-weight:normal;font-stretch:normal;font-size:16.10509872px;font-family:sans-serif;-inkscape-font-specification:sans-serif;fill:#008080;fill-opacity:1"
         y="-240.26944"
         x="510.67123"
         id="tspan7142-2-9"
         sodipodi:role="line">p7 read</tspan></text>
    <text
       sodipodi:linespacing="125%"
       id="text7575-4-9-7"
       y="-293.79163"
       x="70.005234"
       style="font-style:normal;font-variant:normal;font-weight:normal;font-stretch:normal;font-size:11.7897377px;line-height:125%;font-family:Arial;-inkscape-font-specification:Arial;letter-spacing:0px;word-spacing:0px;fill:#000000;fill-opacity:1;stroke:none"
       xml:space="preserve"><tspan
         style="font-style:normal;font-variant:normal;font-weight:normal;font-stretch:normal;font-size:11.7897377px;font-family:sans-serif;-inkscape-font-specification:sans-serif"
         y="-293.79163"
         x="70.005234"
         id="tspan7577-2-3-9"
         sodipodi:role="line">p5 barcode</tspan></text>
    <text
       sodipodi:linespacing="125%"
       id="text7575-4-3-34-3"
       y="-213.31503"
       x="135.66856"
       style="font-style:normal;font-variant:normal;font-weight:normal;font-stretch:normal;font-size:11.7897377px;line-height:125%;font-family:Arial;-inkscape-font-specification:Arial;letter-spacing:0px;word-spacing:0px;fill:#000000;fill-opacity:1;stroke:none"
       xml:space="preserve"><tspan
         id="tspan7959-6-7"
         style="font-style:normal;font-variant:normal;font-weight:normal;font-stretch:normal;font-size:11.7897377px;font-family:sans-serif;-inkscape-font-specification:sans-serif"
         y="-213.31503"
         x="135.66856"
         sodipodi:role="line">p5 spacer</tspan></text>
    <text
       sodipodi:linespacing="125%"
       id="text7575-4-3-3-5-8"
       y="-293.79163"
       x="159.60376"
       style="font-style:normal;font-variant:normal;font-weight:normal;font-stretch:normal;font-size:11.7897377px;line-height:125%;font-family:Arial;-inkscape-font-specification:Arial;letter-spacing:0px;word-spacing:0px;fill:#000000;fill-opacity:1;stroke:none"
       xml:space="preserve"><tspan
         style="font-style:normal;font-variant:normal;font-weight:normal;font-stretch:normal;font-size:11.7897377px;font-family:sans-serif;-inkscape-font-specification:sans-serif"
         y="-293.79163"
         x="159.60376"
         id="tspan7577-2-4-0-2-7"
         sodipodi:role="line">p5 enzyme residue</tspan><tspan
         style="font-style:normal;font-variant:normal;font-weight:normal;font-stretch:normal;font-size:11.7897377px;font-family:sans-serif;-inkscape-font-specification:sans-serif"
         y="-279.05444"
         x="159.60376"
         sodipodi:role="line"
         id="tspan4225">(rare cutter)</tspan></text>
    <text
       sodipodi:linespacing="125%"
       id="text7575-4-3-3-2-0-4"
       y="-213.31503"
       x="225.62976"
       style="font-style:normal;font-variant:normal;font-weight:normal;font-stretch:normal;font-size:11.78973866px;line-height:125%;font-family:Arial;-inkscape-font-specification:Arial;letter-spacing:0px;word-spacing:0px;fill:#000000;fill-opacity:1;stroke:none"
       xml:space="preserve"><tspan
         style="font-style:normal;font-variant:normal;font-weight:normal;font-stretch:normal;font-size:11.78973866px;font-family:sans-serif;-inkscape-font-specification:sans-serif"
         y="-213.31503"
         x="225.62976"
         id="tspan7577-2-4-0-6-2-1"
         sodipodi:role="line">genomic sequence</tspan></text>
    <text
       sodipodi:linespacing="125%"
       id="text7575-4-3-5-6-9"
       y="-294.1543"
       x="581.9541"
       style="font-style:normal;font-variant:normal;font-weight:normal;font-stretch:normal;font-size:11.78973866px;line-height:125%;font-family:Arial;-inkscape-font-specification:Arial;letter-spacing:0px;word-spacing:0px;display:inline;fill:#000000;fill-opacity:1;stroke:none"
       xml:space="preserve"><tspan
         id="tspan7959-3-2-0"
         style="font-style:normal;font-variant:normal;font-weight:normal;font-stretch:normal;font-size:11.78973866px;font-family:sans-serif;-inkscape-font-specification:sans-serif"
         y="-294.1543"
         x="581.9541"
         sodipodi:role="line">p7 spacer</tspan></text>
    <text
       sodipodi:linespacing="125%"
       id="text7575-4-8-9-9"
       y="-213.31503"
       x="603.95996"
       style="font-style:normal;font-variant:normal;font-weight:normal;font-stretch:normal;font-size:11.78973866px;line-height:125%;font-family:Arial;-inkscape-font-specification:Arial;letter-spacing:0px;word-spacing:0px;display:inline;fill:#000000;fill-opacity:1;stroke:none"
       xml:space="preserve"><tspan
         style="font-style:normal;font-variant:normal;font-weight:normal;font-stretch:normal;font-size:11.78973866px;font-family:sans-serif;-inkscape-font-specification:sans-serif"
         y="-213.31503"
         x="603.95996"
         id="tspan7577-2-2-65-8"
         sodipodi:role="line">DBR</tspan><tspan
         style="font-style:normal;font-variant:normal;font-weight:normal;font-stretch:normal;font-size:11.78973866px;font-family:sans-serif;-inkscape-font-specification:sans-serif"
         y="-198.57787"
         x="603.95996"
         sodipodi:role="line"
         id="tspan4881">(here: ambiguous)</tspan></text>
    <path
       style="fill:#f3bcbc;fill-opacity:0.97254902;fill-rule:evenodd;stroke:#f3bcbc;stroke-width:1px;stroke-linecap:butt;stroke-linejoin:miter;stroke-opacity:0.97254902"
       d="m 75.169622,-289.16257 0,31.07143"
       id="path4227"
       inkscape:connector-curvature="0"
       sodipodi:nodetypes="cc" />
    <path
       style="fill:#f3bcbc;fill-opacity:0.97254902;fill-rule:evenodd;stroke:#f3bcbc;stroke-width:1px;stroke-linecap:butt;stroke-linejoin:miter;stroke-opacity:0.97254902"
       d="m 143.07516,-239.0694 0,15.35715"
       id="path4227-3"
       inkscape:connector-curvature="0"
       sodipodi:nodetypes="cc" />
    <path
       style="fill:#f3bcbc;fill-opacity:0.97254902;fill-rule:evenodd;stroke:#f3bcbc;stroke-width:1px;stroke-linecap:butt;stroke-linejoin:miter;stroke-opacity:0.97254902"
       d="m 169.69257,-277.19828 0,19.10714"
       id="path4227-6"
       inkscape:connector-curvature="0"
       sodipodi:nodetypes="cc" />
    <path
       style="fill:#d0ebf2;fill-opacity:1;fill-rule:evenodd;stroke:#d0ebf2;stroke-width:1px;stroke-linecap:butt;stroke-linejoin:miter;stroke-opacity:1"
       d="m 231.69032,-239.0694 0,15.35715"
       id="path4227-3-7"
       inkscape:connector-curvature="0"
       sodipodi:nodetypes="cc" />
    <path
       style="fill:#f3bcbc;fill-opacity:0.97254902;fill-rule:evenodd;stroke:#a6d2d2;stroke-width:1px;stroke-linecap:butt;stroke-linejoin:miter;stroke-opacity:1"
       d="m 589.0322,-273.44828 0,15.35714"
       id="path4227-3-3"
       inkscape:connector-curvature="0"
       sodipodi:nodetypes="cc" />
    <path
       style="fill:#f3bcbc;fill-opacity:0.97254902;fill-rule:evenodd;stroke:#a6d2d2;stroke-width:1px;stroke-linecap:butt;stroke-linejoin:miter;stroke-opacity:1"
       d="m 613.95146,-239.0694 0,15.35714"
       id="path4227-3-56"
       inkscape:connector-curvature="0"
       sodipodi:nodetypes="cc" />
    <g
       id="g4660"
       transform="translate(-23.531156,-239.44645)">
      <rect
         y="263.19482"
         x="808.49567"
         height="19.021742"
         width="185.13019"
         id="rect6186-7-1-1-1-6-0-8-9-8-3"
         style="fill:#d0ebf2;fill-opacity:1;stroke:none;stroke-width:0.5;stroke-linejoin:miter;stroke-miterlimit:4;stroke-dasharray:none;stroke-dashoffset:0;stroke-opacity:1"
         transform="translate(-6.9482042,-281.83951)" />
      <text
         sodipodi:linespacing="125%"
         id="text4240"
         y="-3.8164325"
         x="805.30579"
         style="font-style:normal;font-variant:normal;font-weight:normal;font-stretch:normal;font-size:15px;line-height:125%;font-family:'Droid Sans Mono';-inkscape-font-specification:'Droid Sans Mono';letter-spacing:0px;word-spacing:0px;fill:#000000;fill-opacity:1;stroke:none;stroke-width:1px;stroke-linecap:butt;stroke-linejoin:miter;stroke-opacity:1"
         xml:space="preserve"><tspan
           y="-3.8164325"
           x="805.30579"
           id="tspan4242"
           sodipodi:role="line">AGGCGGCGCGCGC...</tspan></text>
    </g>
    <g
       id="g4638"
       transform="translate(-2.500242,-239.40617)">
      <rect
         style="display:inline;fill:#a6d2d2;fill-opacity:1;stroke:none;stroke-width:0.5;stroke-linejoin:miter;stroke-miterlimit:4;stroke-dasharray:none;stroke-dashoffset:0;stroke-opacity:1"
         id="rect6186-7-1-1-1-6-8-7-85-8-55-5-38"
         width="34.231781"
         height="19.021742"
         x="-784.01654"
         y="263.15454"
         transform="matrix(-1,0,0,1,-6.9482042,-281.83951)" />
      <text
         sodipodi:linespacing="125%"
         id="text4244"
         y="-3.8164325"
         x="746.26349"
         style="font-style:normal;font-variant:normal;font-weight:normal;font-stretch:normal;font-size:15px;line-height:125%;font-family:'Droid Sans Mono';-inkscape-font-specification:'Droid Sans Mono';letter-spacing:0px;word-spacing:0px;fill:#000000;fill-opacity:1;stroke:none;stroke-width:1px;stroke-linecap:butt;stroke-linejoin:miter;stroke-opacity:1"
         xml:space="preserve"><tspan
           y="-3.8164325"
           x="746.26349"
           id="tspan4246"
           sodipodi:role="line">TAC</tspan></text>
    </g>
    <text
       sodipodi:linespacing="125%"
       id="text7575-4-3-3-28-0-8"
       y="-293.79163"
       x="739.32318"
       style="font-style:normal;font-variant:normal;font-weight:normal;font-stretch:normal;font-size:11.78973866px;line-height:125%;font-family:Arial;-inkscape-font-specification:Arial;letter-spacing:0px;word-spacing:0px;display:inline;fill:#000000;fill-opacity:1;stroke:none"
       xml:space="preserve"><tspan
         style="font-style:normal;font-variant:normal;font-weight:normal;font-stretch:normal;font-size:11.78973866px;font-family:sans-serif;-inkscape-font-specification:sans-serif"
         y="-293.79163"
         x="739.32318"
         id="tspan7577-2-4-0-5-5-5"
         sodipodi:role="line">p7 enzyme residue</tspan><tspan
         style="font-style:normal;font-variant:normal;font-weight:normal;font-stretch:normal;font-size:11.78973866px;font-family:sans-serif;-inkscape-font-specification:sans-serif"
         y="-279.05444"
         x="739.32318"
         sodipodi:role="line"
         id="tspan4223">(frequent cutter)</tspan></text>
    <text
       sodipodi:linespacing="125%"
       id="text7575-4-3-3-2-6-7-8"
       y="-212.95236"
       x="777.36584"
       style="font-style:normal;font-variant:normal;font-weight:normal;font-stretch:normal;font-size:11.78973866px;line-height:125%;font-family:Arial;-inkscape-font-specification:Arial;letter-spacing:0px;word-spacing:0px;display:inline;fill:#000000;fill-opacity:1;stroke:none"
       xml:space="preserve"><tspan
         style="font-style:normal;font-variant:normal;font-weight:normal;font-stretch:normal;font-size:11.78973866px;font-family:sans-serif;-inkscape-font-specification:sans-serif"
         y="-212.95236"
         x="777.36584"
         id="tspan7577-2-4-0-6-1-5-4"
         sodipodi:role="line">genomic sequence</tspan></text>
    <path
       style="fill:#d0ebf2;fill-opacity:1;fill-rule:evenodd;stroke:#d0ebf2;stroke-width:1px;stroke-linecap:butt;stroke-linejoin:miter;stroke-opacity:1"
       d="m 782.51632,-239.0694 0,15.35715"
       id="path4227-3-5"
       inkscape:connector-curvature="0"
       sodipodi:nodetypes="cc" />
    <path
       style="fill:#f3bcbc;fill-opacity:0.97254902;fill-rule:evenodd;stroke:#a6d2d2;stroke-width:1px;stroke-linecap:butt;stroke-linejoin:miter;stroke-opacity:1"
       d="m 745.01031,-273.44828 0,15.35714"
       id="path4227-3-2"
       inkscape:connector-curvature="0"
       sodipodi:nodetypes="cc" />
    <rect
       style="fill:#93a7ac;fill-opacity:1;stroke:none;stroke-width:0.5;stroke-linejoin:miter;stroke-miterlimit:4;stroke-dasharray:none;stroke-dashoffset:0;stroke-opacity:1"
       id="rect6186-7-1-1-1-6-0-8-9-8-36"
       width="434.25058"
       height="21.588808"
       x="47.926376"
       y="-5.6261592" />
    <rect
       style="display:inline;fill:#a6d2d2;fill-opacity:1;stroke:none;stroke-width:0.5;stroke-linejoin:miter;stroke-miterlimit:4;stroke-dasharray:none;stroke-dashoffset:0;stroke-opacity:1"
       id="rect6186-7-1-1-1-6-8-7-85-8-55-5-3-5"
       width="131.91032"
       height="19.021729"
       x="-543.08911"
       y="-166.52608"
       transform="scale(-1,1)" />
    <g
       id="g4583-3"
       transform="translate(-202.35387,-17.851657)"
       style="fill:#f3bcbc;fill-opacity:0.97254902">
      <rect
         style="fill:#f3bcbc;fill-opacity:0.97254902;stroke:none;stroke-width:0.5;stroke-linejoin:miter;stroke-miterlimit:4;stroke-dasharray:none;stroke-dashoffset:0;stroke-opacity:1"
         id="rect6186-7-1-1-1-6-0-8-9-8-5"
         width="185.13019"
         height="19.021742"
         x="257.22845"
         y="263.19482"
         transform="translate(-6.9482042,-281.83951)" />
    </g>
    <path
       style="fill:none;fill-rule:evenodd;stroke:#000000;stroke-width:1.00000012;stroke-linecap:butt;stroke-linejoin:miter;stroke-miterlimit:4;stroke-dasharray:none;stroke-opacity:1;marker-start:url(#Arrow2Lstart)"
       d="m 231.38486,-26.967856 -41.41626,0"
       id="path4278"
       inkscape:connector-curvature="0" />
    <g
       id="g4645"
       transform="translate(51.635529,17.172594)">
      <g
         style="fill:#a6d2d2;fill-opacity:1"
         transform="translate(-4.8690108,-35.024251)"
         id="g4583-9">
        <rect
           transform="translate(-6.9482042,-281.83951)"
           y="263.19482"
           x="257.22845"
           height="19.021742"
           width="185.13019"
           id="rect6186-7-1-1-1-6-0-8-9-8-1"
           style="fill:#a6d2d2;fill-opacity:1;stroke:none;stroke-width:0.5;stroke-linejoin:miter;stroke-miterlimit:4;stroke-dasharray:none;stroke-dashoffset:0;stroke-opacity:1" />
      </g>
      <path
         inkscape:connector-curvature="0"
         id="path4278-3"
         d="m 247.08294,-44.14045 41.41626,0"
         style="fill:none;fill-rule:evenodd;stroke:#000000;stroke-width:1.00000012;stroke-linecap:butt;stroke-linejoin:miter;stroke-miterlimit:4;stroke-dasharray:none;stroke-opacity:1;marker-start:url(#Arrow2Lstart-0)" />
    </g>
    <text
       sodipodi:linespacing="125%"
       id="text7136-4-6-6"
       y="-43.869465"
       x="109.53949"
       style="font-style:normal;font-variant:normal;font-weight:500;font-stretch:normal;font-size:16.10509872px;line-height:125%;font-family:'CMU Serif';-inkscape-font-specification:'CMU Serif Medium';letter-spacing:0px;word-spacing:0px;display:inline;fill:#d72828;fill-opacity:0.9691721;stroke:none;stroke-width:1px;stroke-linecap:butt;stroke-linejoin:miter;stroke-opacity:1"
       xml:space="preserve"><tspan
         style="font-style:normal;font-variant:normal;font-weight:normal;font-stretch:normal;font-family:sans-serif;-inkscape-font-specification:sans-serif"
         y="-43.869465"
         x="109.53949"
         id="tspan7138-0-8-0"
         sodipodi:role="line">p5 read</tspan></text>
    <text
       sodipodi:linespacing="125%"
       id="text7140-3-8-6"
       y="-43.869465"
       x="358.65988"
       style="font-style:normal;font-variant:normal;font-weight:500;font-stretch:normal;font-size:20.13137245px;line-height:125%;font-family:'CMU Serif';-inkscape-font-specification:'CMU Serif Medium';letter-spacing:0px;word-spacing:0px;display:inline;fill:#008080;fill-opacity:1;stroke:none;stroke-width:1px;stroke-linecap:butt;stroke-linejoin:miter;stroke-opacity:1"
       xml:space="preserve"><tspan
         style="font-style:normal;font-variant:normal;font-weight:normal;font-stretch:normal;font-size:16.10509872px;font-family:sans-serif;-inkscape-font-specification:sans-serif;fill:#008080;fill-opacity:1"
         y="-43.869465"
         x="358.65988"
         id="tspan7142-2-9-2"
         sodipodi:role="line">p7 read</tspan></text>
    <text
       sodipodi:linespacing="125%"
       id="text7140-3-8-6-6"
       y="36.425137"
       x="115.94189"
       style="font-style:normal;font-variant:normal;font-weight:500;font-stretch:normal;font-size:20.13137245px;line-height:125%;font-family:'CMU Serif';-inkscape-font-specification:'CMU Serif Medium';letter-spacing:0px;word-spacing:0px;display:inline;fill:#4e6166;fill-opacity:1;stroke:none;stroke-width:1px;stroke-linecap:butt;stroke-linejoin:miter;stroke-opacity:1"
       xml:space="preserve"><tspan
         style="font-style:normal;font-variant:normal;font-weight:normal;font-stretch:normal;font-size:16.10509872px;font-family:sans-serif;-inkscape-font-specification:sans-serif;fill:#4e6166;fill-opacity:1"
         y="36.425137"
         x="115.94189"
         id="tspan7142-2-9-2-1"
         sodipodi:role="line">fragment longer than 2 * read length</tspan></text>
    <rect
       style="fill:#93a7ac;fill-opacity:1;stroke:none;stroke-width:0.5;stroke-linejoin:miter;stroke-miterlimit:4;stroke-dasharray:none;stroke-dashoffset:0;stroke-opacity:1"
       id="rect6186-7-1-1-1-6-0-8-9-8-36-0"
       width="286.76834"
       height="21.58881"
       x="588.37579"
       y="-5.6261644" />
    <g
       id="g4583-3-2"
       transform="translate(338.09555,-17.85166)"
       style="fill:#f3bcbc;fill-opacity:0.97254902">
      <rect
         style="fill:#f3bcbc;fill-opacity:0.97254902;stroke:none;stroke-width:0.5;stroke-linejoin:miter;stroke-miterlimit:4;stroke-dasharray:none;stroke-dashoffset:0;stroke-opacity:1"
         id="rect6186-7-1-1-1-6-0-8-9-8-5-3"
         width="185.13019"
         height="19.021742"
         x="257.22845"
         y="263.19482"
         transform="translate(-6.9482042,-281.83951)" />
    </g>
    <path
       style="fill:none;fill-rule:evenodd;stroke:#000000;stroke-width:1.00000012;stroke-linecap:butt;stroke-linejoin:miter;stroke-miterlimit:4;stroke-dasharray:none;stroke-opacity:1;marker-start:url(#marker4830)"
       d="m 771.83428,-26.967861 -41.41626,0"
       id="path4278-7"
       inkscape:connector-curvature="0" />
    <g
       id="g4645-5"
       transform="translate(444.60271,-1.8491509)">
      <g
         style="fill:#a6d2d2;fill-opacity:1"
         transform="translate(-4.8690108,-35.024251)"
         id="g4583-9-9">
        <rect
           transform="translate(-6.9482042,-281.83951)"
           y="263.19482"
           x="257.22845"
           height="19.021742"
           width="185.13019"
           id="rect6186-7-1-1-1-6-0-8-9-8-1-2"
           style="fill:#a6d2d2;fill-opacity:1;stroke:none;stroke-width:0.5;stroke-linejoin:miter;stroke-miterlimit:4;stroke-dasharray:none;stroke-dashoffset:0;stroke-opacity:1" />
      </g>
      <path
         inkscape:connector-curvature="0"
         id="path4278-3-2"
         d="m 247.08294,-44.14045 41.41626,0"
         style="fill:none;fill-rule:evenodd;stroke:#000000;stroke-width:1.00000012;stroke-linecap:butt;stroke-linejoin:miter;stroke-miterlimit:4;stroke-dasharray:none;stroke-opacity:1;marker-start:url(#Arrow2Lstart-0-8)" />
    </g>
    <text
       sodipodi:linespacing="125%"
       id="text7136-4-6-6-8"
       y="-43.869469"
       x="586.91315"
       style="font-style:normal;font-variant:normal;font-weight:500;font-stretch:normal;font-size:16.10509872px;line-height:125%;font-family:'CMU Serif';-inkscape-font-specification:'CMU Serif Medium';letter-spacing:0px;word-spacing:0px;display:inline;fill:#d72828;fill-opacity:0.9691721;stroke:none;stroke-width:1px;stroke-linecap:butt;stroke-linejoin:miter;stroke-opacity:1"
       xml:space="preserve"><tspan
         style="font-style:normal;font-variant:normal;font-weight:normal;font-stretch:normal;font-family:sans-serif;-inkscape-font-specification:sans-serif"
         y="-43.869469"
         x="586.91315"
         id="tspan7138-0-8-0-9"
         sodipodi:role="line">p5 read</tspan></text>
    <text
       sodipodi:linespacing="125%"
       id="text7140-3-8-6-7"
       y="-22.151186"
       x="814.70282"
       style="font-style:normal;font-variant:normal;font-weight:500;font-stretch:normal;font-size:20.13137245px;line-height:125%;font-family:'CMU Serif';-inkscape-font-specification:'CMU Serif Medium';letter-spacing:0px;word-spacing:0px;display:inline;fill:#008080;fill-opacity:1;stroke:none;stroke-width:1px;stroke-linecap:butt;stroke-linejoin:miter;stroke-opacity:1"
       xml:space="preserve"><tspan
         style="font-style:normal;font-variant:normal;font-weight:normal;font-stretch:normal;font-size:16.10509872px;font-family:sans-serif;-inkscape-font-specification:sans-serif;fill:#008080;fill-opacity:1"
         y="-22.151186"
         x="814.70282"
         id="tspan7142-2-9-2-3"
         sodipodi:role="line">p7 read</tspan></text>
    <text
       sodipodi:linespacing="125%"
       id="text7140-3-8-6-6-6"
       y="-73.494591"
       x="630.01788"
       style="font-style:normal;font-variant:normal;font-weight:500;font-stretch:normal;font-size:20.13137245px;line-height:125%;font-family:'CMU Serif';-inkscape-font-specification:'CMU Serif Medium';letter-spacing:0px;word-spacing:0px;display:inline;fill:#4e6166;fill-opacity:1;stroke:none;stroke-width:1px;stroke-linecap:butt;stroke-linejoin:miter;stroke-opacity:1"
       xml:space="preserve"><tspan
         style="font-style:normal;font-variant:normal;font-weight:normal;font-stretch:normal;font-size:16.10509872px;font-family:sans-serif;-inkscape-font-specification:sans-serif;fill:#4e6166;fill-opacity:1"
         y="-73.494591"
         x="630.01788"
         id="tspan7142-2-9-2-1-1"
         sodipodi:role="line">Reads with overlap = 0.3</tspan></text>
    <text
       sodipodi:linespacing="125%"
       id="text7140-3-8-6-6-2"
       y="-73.494591"
       x="174.5981"
       style="font-style:normal;font-variant:normal;font-weight:500;font-stretch:normal;font-size:20.13137245px;line-height:125%;font-family:'CMU Serif';-inkscape-font-specification:'CMU Serif Medium';letter-spacing:0px;word-spacing:0px;display:inline;fill:#4e6166;fill-opacity:1;stroke:none;stroke-width:1px;stroke-linecap:butt;stroke-linejoin:miter;stroke-opacity:1"
       xml:space="preserve"><tspan
         style="font-style:normal;font-variant:normal;font-weight:normal;font-stretch:normal;font-size:16.10509872px;font-family:sans-serif;-inkscape-font-specification:sans-serif;fill:#4e6166;fill-opacity:1"
         y="-73.494591"
         x="174.5981"
         id="tspan7142-2-9-2-1-9"
         sodipodi:role="line">Reads without overlap</tspan></text>
    <text
       sodipodi:linespacing="125%"
       id="text7140-3-8-6-6-3"
       y="36.425137"
       x="579.31592"
       style="font-style:normal;font-variant:normal;font-weight:500;font-stretch:normal;font-size:20.13137245px;line-height:125%;font-family:'CMU Serif';-inkscape-font-specification:'CMU Serif Medium';letter-spacing:0px;word-spacing:0px;display:inline;fill:#4e6166;fill-opacity:1;stroke:none;stroke-width:1px;stroke-linecap:butt;stroke-linejoin:miter;stroke-opacity:1"
       xml:space="preserve"><tspan
         style="font-style:normal;font-variant:normal;font-weight:normal;font-stretch:normal;font-size:16.10509872px;font-family:sans-serif;-inkscape-font-specification:sans-serif;fill:#4e6166;fill-opacity:1"
         y="36.425137"
         x="579.31592"
         id="tspan7142-2-9-2-1-19"
         sodipodi:role="line">fragment shorter than 2 * read length</tspan></text>
  </g>
</svg>
