<?xml version="1.0" encoding="UTF-8" standalone="no"?>
<!-- Created with Inkscape (http://www.inkscape.org/) -->

<svg
   xmlns:dc="http://purl.org/dc/elements/1.1/"
   xmlns:cc="http://creativecommons.org/ns#"
   xmlns:rdf="http://www.w3.org/1999/02/22-rdf-syntax-ns#"
   xmlns:svg="http://www.w3.org/2000/svg"
   xmlns="http://www.w3.org/2000/svg"
   xmlns:sodipodi="http://sodipodi.sourceforge.net/DTD/sodipodi-0.dtd"
   xmlns:inkscape="http://www.inkscape.org/namespaces/inkscape"
   width="271.42068mm"
   height="30.091539mm"
   viewBox="0 0 961.72684 106.62355"
   id="svg10222"
   version="1.1"
   inkscape:version="0.91 r13725"
   sodipodi:docname="read_structure.svg">
  <defs
     id="defs10224" />
  <sodipodi:namedview
     id="base"
     pagecolor="#ffffff"
     bordercolor="#666666"
     borderopacity="1.0"
     inkscape:pageopacity="0.0"
     inkscape:pageshadow="2"
     inkscape:zoom="1.979899"
     inkscape:cx="555.1509"
     inkscape:cy="76.45271"
     inkscape:document-units="px"
     inkscape:current-layer="layer1"
     showgrid="false"
     fit-margin-top="0"
     fit-margin-left="0"
     fit-margin-right="0"
     fit-margin-bottom="0"
     inkscape:window-width="2560"
     inkscape:window-height="1375"
     inkscape:window-x="0"
     inkscape:window-y="0"
     inkscape:window-maximized="1" />
  <metadata
     id="metadata10227">
    <rdf:RDF>
      <cc:Work
         rdf:about="">
        <dc:format>image/svg+xml</dc:format>
        <dc:type
           rdf:resource="http://purl.org/dc/dcmitype/StillImage" />
        <dc:title />
      </cc:Work>
    </rdf:RDF>
  </metadata>
  <g
     inkscape:groupmode="layer"
     id="layer2"
     inkscape:label="boxes"
     transform="translate(-8.3678258,-217.48646)" />
  <g
     inkscape:label="Layer 1"
     inkscape:groupmode="layer"
     id="layer1"
     transform="translate(-1.4196216,64.353049)">
    <g
       id="g4539"
       transform="translate(0,-2.2131793)">
      <rect
         style="display:inline;fill:#f3bdbd;fill-opacity:0.9691721;stroke:none;stroke-width:0.5;stroke-linejoin:miter;stroke-miterlimit:4;stroke-dasharray:none;stroke-dashoffset:0;stroke-opacity:1"
         id="rect6186-7-1-1-1-6-4-9-8-6-6"
         width="60.61319"
         height="19.021729"
         x="78.024185"
         y="264.35757"
         transform="translate(-6.9482042,-281.83951)" />
      <text
         sodipodi:linespacing="125%"
         id="text4216"
         y="-2.6134052"
         x="74.770027"
         style="font-style:normal;font-variant:normal;font-weight:normal;font-stretch:normal;font-size:15px;line-height:125%;font-family:'Noto Mono';-inkscape-font-specification:'Noto Mono';letter-spacing:0px;word-spacing:0px;fill:#000000;fill-opacity:1;stroke:none;stroke-width:1px;stroke-linecap:butt;stroke-linejoin:miter;stroke-opacity:1"
         xml:space="preserve"><tspan
           y="-2.6134052"
           x="74.770027"
           id="tspan4218"
           sodipodi:role="line">ACGTAG</tspan></text>
    </g>
    <g
       id="g4533"
       transform="translate(-33.905838,2.8375648)">
      <rect
         style="display:inline;fill:#f3bdbd;fill-opacity:0.9691721;stroke:none;stroke-width:0.5;stroke-linejoin:miter;stroke-miterlimit:4;stroke-dasharray:none;stroke-dashoffset:0;stroke-opacity:1"
         id="rect6186-7-1-1-1-6-4-9-8-4-9-9-5"
         width="18.82748"
         height="19.021742"
         x="177.59335"
         y="259.30682"
         transform="translate(-6.9482042,-281.83951)" />
      <text
         sodipodi:linespacing="125%"
         id="text4220"
         y="-7.6641493"
         x="175.62407"
         style="font-style:normal;font-variant:normal;font-weight:normal;font-stretch:normal;font-size:15px;line-height:125%;font-family:'Noto Mono';-inkscape-font-specification:'Noto Mono';letter-spacing:0px;word-spacing:0px;fill:#000000;fill-opacity:1;stroke:none;stroke-width:1px;stroke-linecap:butt;stroke-linejoin:miter;stroke-opacity:1"
         xml:space="preserve"><tspan
           y="-7.6641493"
           x="175.62407"
           id="tspan4222"
           sodipodi:role="line">G</tspan></text>
    </g>
    <g
       id="g4561"
       transform="translate(-21.056832,-2.4391982)">
      <rect
         y="-17.255917"
         x="181.67377"
         height="19.021729"
         width="60.61319"
         id="rect6186-7-1-1-1-6-4-9-8-6-6-7"
         style="display:inline;fill:#f3bdbd;fill-opacity:0.9691721;stroke:none;stroke-width:0.5;stroke-linejoin:miter;stroke-miterlimit:4;stroke-dasharray:none;stroke-dashoffset:0;stroke-opacity:1" />
      <text
         sodipodi:linespacing="125%"
         id="text4224"
         y="-2.3873863"
         x="189.50233"
         style="font-style:normal;font-variant:normal;font-weight:normal;font-stretch:normal;font-size:15px;line-height:125%;font-family:'Noto Mono';-inkscape-font-specification:'Noto Mono';letter-spacing:0px;word-spacing:0px;fill:#000000;fill-opacity:1;stroke:none;stroke-width:1px;stroke-linecap:butt;stroke-linejoin:miter;stroke-opacity:1"
         xml:space="preserve"><tspan
           y="-2.3873863"
           x="189.50233"
           id="tspan4226"
           sodipodi:role="line">TGCAT</tspan></text>
    </g>
    <g
       id="g4583"
       transform="translate(-23.999985,-1.0504357)">
      <rect
         style="fill:#d0ebf2;fill-opacity:1;stroke:none;stroke-width:0.5;stroke-linejoin:miter;stroke-miterlimit:4;stroke-dasharray:none;stroke-dashoffset:0;stroke-opacity:1"
         id="rect6186-7-1-1-1-6-0-8-9-8"
         width="185.13019"
         height="19.021742"
         x="257.22845"
         y="263.19482"
         transform="translate(-6.9482042,-281.83951)" />
      <text
         sodipodi:linespacing="125%"
         id="text4228"
         y="-3.816432"
         x="254.94861"
         style="font-style:normal;font-variant:normal;font-weight:normal;font-stretch:normal;font-size:15px;line-height:125%;font-family:'Noto Mono';-inkscape-font-specification:'Noto Mono';letter-spacing:0px;word-spacing:0px;fill:#000000;fill-opacity:1;stroke:none;stroke-width:1px;stroke-linecap:butt;stroke-linejoin:miter;stroke-opacity:1"
         xml:space="preserve"><tspan
           y="-3.816432"
           x="254.94861"
           id="tspan4230"
           sodipodi:role="line">ACGTACGT...</tspan></text>
    </g>
    <g
       id="g4626"
       transform="translate(76,-1.0101458)">
      <rect
         style="display:inline;fill:#a6d2d2;fill-opacity:1;stroke:none;stroke-width:0.5;stroke-linejoin:miter;stroke-miterlimit:4;stroke-dasharray:none;stroke-dashoffset:0;stroke-opacity:1"
         id="rect6186-7-1-1-1-6-8-7-85-8-55-5"
         width="18.5"
         height="19.021729"
         x="-532.47308"
         y="263.15454"
         transform="matrix(-1,0,0,1,-6.9482042,-281.83951)" />
      <text
         sodipodi:linespacing="125%"
         id="text4232"
         y="-3.8201008"
         x="511.78513"
         style="font-style:normal;font-variant:normal;font-weight:normal;font-stretch:normal;font-size:15px;line-height:125%;font-family:'Noto Mono';-inkscape-font-specification:'Noto Mono';letter-spacing:0px;word-spacing:0px;fill:#000000;fill-opacity:1;stroke:none;stroke-width:1px;stroke-linecap:butt;stroke-linejoin:miter;stroke-opacity:1"
         xml:space="preserve"><tspan
           y="-3.8201008"
           x="511.78513"
           id="tspan4234"
           sodipodi:role="line">T</tspan></text>
    </g>
    <g
       id="g4632"
       transform="translate(66.894333,-1.0101458)">
      <rect
         style="display:inline;fill:#a6d2d2;fill-opacity:1;stroke:none;stroke-width:0.5;stroke-linejoin:miter;stroke-miterlimit:4;stroke-dasharray:none;stroke-dashoffset:0;stroke-opacity:1"
         id="rect6186-7-1-1-1-6-8-7-85-8-55-5-3"
         width="131.91032"
         height="19.021729"
         x="-676.93732"
         y="263.15454"
         transform="matrix(-1,0,0,1,-6.9482042,-281.83951)" />
      <text
         sodipodi:linespacing="125%"
         id="text4236"
         y="-3.8164387"
         x="545.56836"
         style="font-style:normal;font-variant:normal;font-weight:normal;font-stretch:normal;font-size:15px;line-height:125%;font-family:'Noto Mono';-inkscape-font-specification:'Noto Mono';letter-spacing:0px;word-spacing:0px;fill:#000000;fill-opacity:1;stroke:none;stroke-width:1px;stroke-linecap:butt;stroke-linejoin:miter;stroke-opacity:1"
         xml:space="preserve"><tspan
           y="-3.8164387"
           x="545.56836"
           id="tspan4238"
           sodipodi:role="line">NNNNNNMMGGACG</tspan></text>
    </g>
    <text
       sodipodi:linespacing="125%"
       id="text7136-4-6"
       y="-6.0006995"
       x="-0.04304849"
       style="font-style:normal;font-variant:normal;font-weight:normal;font-stretch:normal;font-size:16.10509872px;line-height:125%;font-family:'Noto Sans';-inkscape-font-specification:'Noto Sans';letter-spacing:0px;word-spacing:0px;display:inline;fill:#d72828;fill-opacity:0.9691721;stroke:none;stroke-width:1px;stroke-linecap:butt;stroke-linejoin:miter;stroke-opacity:1"
       xml:space="preserve"><tspan
         style="font-style:normal;font-variant:normal;font-weight:normal;font-stretch:normal;font-family:'Noto Sans';-inkscape-font-specification:'Noto Sans'"
         y="-6.0006995"
         x="-0.04304849"
         id="tspan7138-0-8"
         sodipodi:role="line">p5 read</tspan></text>
    <text
       sodipodi:linespacing="125%"
       id="text7140-3-8"
       y="-6.0006995"
       x="510.67123"
       style="font-style:normal;font-variant:normal;font-weight:normal;font-stretch:normal;font-size:20.13137245px;line-height:125%;font-family:'Noto Sans';-inkscape-font-specification:'Noto Sans';letter-spacing:0px;word-spacing:0px;display:inline;fill:#008080;fill-opacity:1;stroke:none;stroke-width:1px;stroke-linecap:butt;stroke-linejoin:miter;stroke-opacity:1"
       xml:space="preserve"><tspan
         style="font-style:normal;font-variant:normal;font-weight:normal;font-stretch:normal;font-size:16.10509872px;font-family:'Noto Sans';-inkscape-font-specification:'Noto Sans';fill:#008080;fill-opacity:1"
         y="-6.0006995"
         x="510.67123"
         id="tspan7142-2-9"
         sodipodi:role="line">p7 read</tspan></text>
    <text
       sodipodi:linespacing="125%"
       id="text7575-4-9-7"
       y="-55.395618"
       x="70.005234"
       style="font-style:normal;font-variant:normal;font-weight:normal;font-stretch:normal;font-size:11.7897377px;line-height:125%;font-family:'Noto Sans';-inkscape-font-specification:'Noto Sans';letter-spacing:0px;word-spacing:0px;fill:#000000;fill-opacity:1;stroke:none;"
       xml:space="preserve"><tspan
         style="font-style:normal;font-variant:normal;font-weight:normal;font-stretch:normal;font-size:11.7897377px;font-family:'Noto Sans';-inkscape-font-specification:'Noto Sans';"
         y="-55.395618"
         x="70.005234"
         id="tspan7577-2-3-9"
         sodipodi:role="line">p5 barcode</tspan></text>
    <text
       sodipodi:linespacing="125%"
       id="text7575-4-3-34-3"
       y="25.080978"
       x="135.66856"
       style="font-style:normal;font-variant:normal;font-weight:normal;font-stretch:normal;font-size:11.7897377px;line-height:125%;font-family:'Noto Sans';-inkscape-font-specification:'Noto Sans';letter-spacing:0px;word-spacing:0px;fill:#000000;fill-opacity:1;stroke:none;"
       xml:space="preserve"><tspan
         id="tspan7959-6-7"
         style="font-style:normal;font-variant:normal;font-weight:normal;font-stretch:normal;font-size:11.7897377px;font-family:'Noto Sans';-inkscape-font-specification:'Noto Sans';"
         y="25.080978"
         x="135.66856"
         sodipodi:role="line">p5 spacer</tspan></text>
    <text
       sodipodi:linespacing="125%"
       id="text7575-4-3-3-5-8"
       y="-55.395618"
       x="159.60376"
       style="font-style:normal;font-variant:normal;font-weight:normal;font-stretch:normal;font-size:11.7897377px;line-height:125%;font-family:'Noto Sans';-inkscape-font-specification:'Noto Sans';letter-spacing:0px;word-spacing:0px;fill:#000000;fill-opacity:1;stroke:none;"
       xml:space="preserve"><tspan
         style="font-style:normal;font-variant:normal;font-weight:normal;font-stretch:normal;font-size:11.7897377px;font-family:'Noto Sans';-inkscape-font-specification:'Noto Sans';"
         y="-55.395618"
         x="159.60376"
         id="tspan7577-2-4-0-2-7"
         sodipodi:role="line">p5 enzyme residue</tspan><tspan
         style="font-style:normal;font-variant:normal;font-weight:normal;font-stretch:normal;font-size:11.7897377px;font-family:'Noto Sans';-inkscape-font-specification:'Noto Sans';"
         y="-40.658447"
         x="159.60376"
         sodipodi:role="line"
         id="tspan4225">(rare cutter)</tspan></text>
    <text
       sodipodi:linespacing="125%"
       id="text7575-4-3-3-2-0-4"
       y="25.080978"
       x="225.62976"
       style="font-style:normal;font-variant:normal;font-weight:normal;font-stretch:normal;font-size:11.78973866px;line-height:125%;font-family:'Noto Sans';-inkscape-font-specification:'Noto Sans';letter-spacing:0px;word-spacing:0px;fill:#000000;fill-opacity:1;stroke:none;"
       xml:space="preserve"><tspan
         style="font-style:normal;font-variant:normal;font-weight:normal;font-stretch:normal;font-size:11.78973866px;font-family:'Noto Sans';-inkscape-font-specification:'Noto Sans';"
         y="25.080978"
         x="225.62976"
         id="tspan7577-2-4-0-6-2-1"
         sodipodi:role="line">genomic sequence</tspan></text>
    <text
       sodipodi:linespacing="125%"
       id="text7575-4-3-5-6-9"
       y="-55.758289"
       x="581.9541"
       style="font-style:normal;font-variant:normal;font-weight:normal;font-stretch:normal;font-size:11.78973866px;line-height:125%;font-family:'Noto Sans';-inkscape-font-specification:'Noto Sans';letter-spacing:0px;word-spacing:0px;display:inline;fill:#000000;fill-opacity:1;stroke:none;"
       xml:space="preserve"><tspan
         id="tspan7959-3-2-0"
         style="font-style:normal;font-variant:normal;font-weight:normal;font-stretch:normal;font-size:11.78973866px;font-family:'Noto Sans';-inkscape-font-specification:'Noto Sans';"
         y="-55.758289"
         x="581.9541"
         sodipodi:role="line">p7 spacer</tspan></text>
    <text
       sodipodi:linespacing="125%"
       id="text7575-4-8-9-9"
       y="25.080978"
       x="603.95996"
       style="font-style:normal;font-variant:normal;font-weight:normal;font-stretch:normal;font-size:11.78973866px;line-height:125%;font-family:'Noto Sans';-inkscape-font-specification:'Noto Sans';letter-spacing:0px;word-spacing:0px;display:inline;fill:#000000;fill-opacity:1;stroke:none;"
       xml:space="preserve"><tspan
         style="font-style:normal;font-variant:normal;font-weight:normal;font-stretch:normal;font-size:11.78973866px;font-family:'Noto Sans';-inkscape-font-specification:'Noto Sans';"
         y="25.080978"
         x="603.95996"
         id="tspan7577-2-2-65-8"
         sodipodi:role="line">DBR</tspan><tspan
         style="font-style:normal;font-variant:normal;font-weight:normal;font-stretch:normal;font-size:11.78973866px;font-family:'Noto Sans';-inkscape-font-specification:'Noto Sans';"
         y="39.818153"
         x="603.95996"
         sodipodi:role="line"
         id="tspan4881">(here: ambiguous)</tspan></text>
    <path
       style="fill:#f3bcbc;fill-opacity:0.97254902;fill-rule:evenodd;stroke:#f3bcbc;stroke-width:1px;stroke-linecap:butt;stroke-linejoin:miter;stroke-opacity:0.97254902"
       d="m 75.169622,-50.76655 0,31.071429"
       id="path4227"
       inkscape:connector-curvature="0"
       sodipodi:nodetypes="cc" />
    <path
       style="fill:#f3bcbc;fill-opacity:0.97254902;fill-rule:evenodd;stroke:#f3bcbc;stroke-width:1px;stroke-linecap:butt;stroke-linejoin:miter;stroke-opacity:0.97254902"
       d="m 143.07516,-0.6733796 0,15.3571426"
       id="path4227-3"
       inkscape:connector-curvature="0"
       sodipodi:nodetypes="cc" />
    <path
       style="fill:#f3bcbc;fill-opacity:0.97254902;fill-rule:evenodd;stroke:#f3bcbc;stroke-width:1px;stroke-linecap:butt;stroke-linejoin:miter;stroke-opacity:0.97254902"
       d="m 169.69257,-38.802264 0,19.107143"
       id="path4227-6"
       inkscape:connector-curvature="0"
       sodipodi:nodetypes="cc" />
    <path
       style="fill:#d0ebf2;fill-opacity:1;fill-rule:evenodd;stroke:#d0ebf2;stroke-width:1px;stroke-linecap:butt;stroke-linejoin:miter;stroke-opacity:1"
       d="m 231.69032,-0.67337961 0,15.35714261"
       id="path4227-3-7"
       inkscape:connector-curvature="0"
       sodipodi:nodetypes="cc" />
    <path
       style="fill:#f3bcbc;fill-opacity:0.97254902;fill-rule:evenodd;stroke:#a6d2d2;stroke-width:1px;stroke-linecap:butt;stroke-linejoin:miter;stroke-opacity:1"
       d="m 589.0322,-35.052264 0,15.357143"
       id="path4227-3-3"
       inkscape:connector-curvature="0"
       sodipodi:nodetypes="cc" />
    <path
       style="fill:#f3bcbc;fill-opacity:0.97254902;fill-rule:evenodd;stroke:#a6d2d2;stroke-width:1px;stroke-linecap:butt;stroke-linejoin:miter;stroke-opacity:1"
       d="m 613.95146,-0.67338627 0,15.35714227"
       id="path4227-3-56"
       inkscape:connector-curvature="0"
       sodipodi:nodetypes="cc" />
    <g
       id="g4660"
       transform="translate(-23.531156,-1.0504357)">
      <rect
         y="263.19482"
         x="808.49567"
         height="19.021742"
         width="185.13019"
         id="rect6186-7-1-1-1-6-0-8-9-8-3"
         style="fill:#d0ebf2;fill-opacity:1;stroke:none;stroke-width:0.5;stroke-linejoin:miter;stroke-miterlimit:4;stroke-dasharray:none;stroke-dashoffset:0;stroke-opacity:1"
         transform="translate(-6.9482042,-281.83951)" />
      <text
         sodipodi:linespacing="125%"
         id="text4240"
         y="-3.816432"
         x="805.30579"
         style="font-style:normal;font-variant:normal;font-weight:normal;font-stretch:normal;font-size:15px;line-height:125%;font-family:'Noto Mono';-inkscape-font-specification:'Noto Mono';letter-spacing:0px;word-spacing:0px;fill:#000000;fill-opacity:1;stroke:none;stroke-width:1px;stroke-linecap:butt;stroke-linejoin:miter;stroke-opacity:1"
         xml:space="preserve"><tspan
           y="-3.816432"
           x="805.30579"
           id="tspan4242"
           sodipodi:role="line">AGGCGGCGCGCGC...</tspan></text>
    </g>
    <g
       id="g4638"
       transform="translate(-2.500242,-1.0101525)">
      <rect
         style="display:inline;fill:#a6d2d2;fill-opacity:1;stroke:none;stroke-width:0.5;stroke-linejoin:miter;stroke-miterlimit:4;stroke-dasharray:none;stroke-dashoffset:0;stroke-opacity:1"
         id="rect6186-7-1-1-1-6-8-7-85-8-55-5-38"
         width="34.231781"
         height="19.021742"
         x="-784.01654"
         y="263.15454"
         transform="matrix(-1,0,0,1,-6.9482042,-281.83951)" />
      <text
         sodipodi:linespacing="125%"
         id="text4244"
         y="-3.816432"
         x="746.26349"
         style="font-style:normal;font-variant:normal;font-weight:normal;font-stretch:normal;font-size:15px;line-height:125%;font-family:'Noto Mono';-inkscape-font-specification:'Noto Mono';letter-spacing:0px;word-spacing:0px;fill:#000000;fill-opacity:1;stroke:none;stroke-width:1px;stroke-linecap:butt;stroke-linejoin:miter;stroke-opacity:1"
         xml:space="preserve"><tspan
           y="-3.816432"
           x="746.26349"
           id="tspan4246"
           sodipodi:role="line">TAC</tspan></text>
    </g>
    <text
       sodipodi:linespacing="125%"
       id="text7575-4-3-3-28-0-8"
       y="-55.395618"
       x="739.32318"
       style="font-style:normal;font-variant:normal;font-weight:normal;font-stretch:normal;font-size:11.78973866px;line-height:125%;font-family:'Noto Sans';-inkscape-font-specification:'Noto Sans';letter-spacing:0px;word-spacing:0px;display:inline;fill:#000000;fill-opacity:1;stroke:none;"
       xml:space="preserve"><tspan
         style="font-style:normal;font-variant:normal;font-weight:normal;font-stretch:normal;font-size:11.78973866px;font-family:'Noto Sans';-inkscape-font-specification:'Noto Sans';"
         y="-55.395618"
         x="739.32318"
         id="tspan7577-2-4-0-5-5-5"
         sodipodi:role="line">p7 enzyme residue</tspan><tspan
         style="font-style:normal;font-variant:normal;font-weight:normal;font-stretch:normal;font-size:11.78973866px;font-family:'Noto Sans';-inkscape-font-specification:'Noto Sans';"
         y="-40.658443"
         x="739.32318"
         sodipodi:role="line"
         id="tspan4223">(frequent cutter)</tspan></text>
    <text
       sodipodi:linespacing="125%"
       id="text7575-4-3-3-2-6-7-8"
       y="25.443651"
       x="777.36584"
       style="font-style:normal;font-variant:normal;font-weight:normal;font-stretch:normal;font-size:11.78973866px;line-height:125%;font-family:'Noto Sans';-inkscape-font-specification:'Noto Sans';letter-spacing:0px;word-spacing:0px;display:inline;fill:#000000;fill-opacity:1;stroke:none;"
       xml:space="preserve"><tspan
         style="font-style:normal;font-variant:normal;font-weight:normal;font-stretch:normal;font-size:11.78973866px;font-family:'Noto Sans';-inkscape-font-specification:'Noto Sans';"
         y="25.443651"
         x="777.36584"
         id="tspan7577-2-4-0-6-1-5-4"
         sodipodi:role="line">genomic sequence</tspan></text>
    <path
       style="fill:#d0ebf2;fill-opacity:1;fill-rule:evenodd;stroke:#d0ebf2;stroke-width:1px;stroke-linecap:butt;stroke-linejoin:miter;stroke-opacity:1"
       d="m 782.51632,-0.67337961 0,15.35714261"
       id="path4227-3-5"
       inkscape:connector-curvature="0"
       sodipodi:nodetypes="cc" />
    <path
       style="fill:#f3bcbc;fill-opacity:0.97254902;fill-rule:evenodd;stroke:#a6d2d2;stroke-width:1px;stroke-linecap:butt;stroke-linejoin:miter;stroke-opacity:1"
       d="m 745.01031,-35.052264 0,15.357143"
       id="path4227-3-2"
       inkscape:connector-curvature="0"
       sodipodi:nodetypes="cc" />
  </g>
</svg>
