<?xml version="1.0" encoding="UTF-8" standalone="no"?>
<!-- Created with Inkscape (http://www.inkscape.org/) -->

<svg
   xmlns:dc="http://purl.org/dc/elements/1.1/"
   xmlns:cc="http://creativecommons.org/ns#"
   xmlns:rdf="http://www.w3.org/1999/02/22-rdf-syntax-ns#"
   xmlns:svg="http://www.w3.org/2000/svg"
   xmlns="http://www.w3.org/2000/svg"
   xmlns:sodipodi="http://sodipodi.sourceforge.net/DTD/sodipodi-0.dtd"
   xmlns:inkscape="http://www.inkscape.org/namespaces/inkscape"
   width="206.26387mm"
   height="11.37313mm"
   viewBox="0 0 730.85625 40.298488"
   id="svg10222"
   version="1.1"
   inkscape:version="0.91 r"
   sodipodi:docname="truncation.svg">
  <defs
     id="defs10224" />
  <sodipodi:namedview
     id="base"
     pagecolor="#ffffff"
     bordercolor="#666666"
     borderopacity="1.0"
     inkscape:pageopacity="0.0"
     inkscape:pageshadow="2"
     inkscape:zoom="3.959798"
     inkscape:cx="567.87953"
     inkscape:cy="46.146885"
     inkscape:document-units="px"
     inkscape:current-layer="layer1"
     showgrid="false"
     fit-margin-top="0"
     fit-margin-left="0"
     fit-margin-right="0"
     fit-margin-bottom="0"
     inkscape:window-width="2855"
     inkscape:window-height="1533"
     inkscape:window-x="-8"
     inkscape:window-y="-3"
     inkscape:window-maximized="1" />
  <metadata
     id="metadata10227">
    <rdf:RDF>
      <cc:Work
         rdf:about="">
        <dc:format>image/svg+xml</dc:format>
        <dc:type
           rdf:resource="http://purl.org/dc/dcmitype/StillImage" />
        <dc:title></dc:title>
      </cc:Work>
    </rdf:RDF>
  </metadata>
  <g
     inkscape:label="Layer 1"
     inkscape:groupmode="layer"
     id="layer1"
     transform="translate(6.9482044,-408.85486)">
    <g
       id="g22527-5"
       transform="translate(-154.74047,-1732.3386)">
      <rect
         style="fill:#87cdde;fill-opacity:1;stroke:none;stroke-width:0.5;stroke-linejoin:miter;stroke-miterlimit:4;stroke-dasharray:none;stroke-dashoffset:0;stroke-opacity:1"
         id="rect6186-7-1-1-1-6-0-8-9"
         width="155.26755"
         height="19.021729"
         x="281.01245"
         y="2145.2971" />
      <g
         id="g22522-9">
        <rect
           y="2145.2971"
           x="218.68323"
           height="19.021742"
           width="18.82748"
           id="rect6186-7-1-1-1-6-4-9-8-6"
           style="display:inline;fill:#d72828;fill-opacity:0.9691721;stroke:none;stroke-width:0.5;stroke-linejoin:miter;stroke-miterlimit:4;stroke-dasharray:none;stroke-dashoffset:0;stroke-opacity:1" />
        <rect
           y="2145.2971"
           x="260.02832"
           height="19.021742"
           width="18.82748"
           id="rect6186-7-1-1-1-6-4-9-8-4-90"
           style="display:inline;fill:#d72828;fill-opacity:0.9691721;stroke:none;stroke-width:0.5;stroke-linejoin:miter;stroke-miterlimit:4;stroke-dasharray:none;stroke-dashoffset:0;stroke-opacity:1" />
        <rect
           y="2145.2971"
           x="239.48465"
           height="19.021742"
           width="18.82748"
           id="rect6186-7-1-1-1-6-4-9-8-4-9-9"
           style="display:inline;fill:#d72828;fill-opacity:0.9691721;stroke:none;stroke-width:0.5;stroke-linejoin:miter;stroke-miterlimit:4;stroke-dasharray:none;stroke-dashoffset:0;stroke-opacity:1" />
      </g>
    </g>
    <text
       sodipodi:linespacing="125%"
       id="text7136-4-6"
       y="426.91223"
       x="-8.4108744"
       style="font-style:normal;font-variant:normal;font-weight:500;font-stretch:normal;font-size:16.10509872px;line-height:125%;font-family:'CMU Serif';-inkscape-font-specification:'CMU Serif Medium';letter-spacing:0px;word-spacing:0px;display:inline;fill:#d72828;fill-opacity:0.9691721;stroke:none;stroke-width:1px;stroke-linecap:butt;stroke-linejoin:miter;stroke-opacity:1"
       xml:space="preserve"><tspan
         style="font-style:normal;font-variant:normal;font-weight:normal;font-stretch:normal;font-family:sans-serif;-inkscape-font-specification:sans-serif"
         y="426.91223"
         x="-8.4108744"
         id="tspan7138-0-8"
         sodipodi:role="line">p5 read</tspan></text>
    <g
       transform="translate(-203.65861,-1735.9114)"
       id="g22564-1">
      <rect
         style="display:inline;fill:#008080;fill-opacity:1;stroke:none;stroke-width:0.5;stroke-linejoin:miter;stroke-miterlimit:4;stroke-dasharray:none;stroke-dashoffset:0;stroke-opacity:1"
         id="rect6186-7-1-1-1-6-8-7-85-84"
         width="11.410594"
         height="19.021742"
         x="-713.26569"
         y="2148.8699"
         transform="scale(-1,1)" />
      <rect
         style="display:inline;fill:#008080;fill-opacity:1;stroke:none;stroke-width:0.5;stroke-linejoin:miter;stroke-miterlimit:4;stroke-dasharray:none;stroke-dashoffset:0;stroke-opacity:1"
         id="rect6186-7-1-1-1-6-8-7-85-8-55"
         width="34.231781"
         height="19.021742"
         x="-699.88434"
         y="2148.8699"
         transform="scale(-1,1)" />
      <rect
         style="display:inline;fill:#008080;fill-opacity:1;stroke:none;stroke-width:0.5;stroke-linejoin:miter;stroke-miterlimit:4;stroke-dasharray:none;stroke-dashoffset:0;stroke-opacity:1"
         id="rect6186-7-1-1-1-6-8-7-85-9-2"
         width="11.410594"
         height="19.021742"
         x="-663.68182"
         y="2148.8699"
         transform="scale(-1,1)" />
    </g>
    <text
       sodipodi:linespacing="125%"
       id="text7140-3-8"
       y="426.91223"
       x="380.1701"
       style="font-style:normal;font-variant:normal;font-weight:500;font-stretch:normal;font-size:20.13137245px;line-height:125%;font-family:'CMU Serif';-inkscape-font-specification:'CMU Serif Medium';letter-spacing:0px;word-spacing:0px;display:inline;fill:#008080;fill-opacity:1;stroke:none;stroke-width:1px;stroke-linecap:butt;stroke-linejoin:miter;stroke-opacity:1"
       xml:space="preserve"><tspan
         style="font-style:normal;font-variant:normal;font-weight:normal;font-stretch:normal;font-size:16.10509872px;font-family:sans-serif;-inkscape-font-specification:sans-serif;fill:#008080;fill-opacity:1"
         y="426.91223"
         x="380.1701"
         id="tspan7142-2-9"
         sodipodi:role="line">p7 read</tspan></text>
    <rect
       y="412.95853"
       x="304.48709"
       height="19.021729"
       width="26.915037"
       id="rect6186-7-1-1-1-6-0-8-9-6"
       style="fill:#e6f5f8;fill-opacity:1;stroke:none;stroke-width:0.5;stroke-linejoin:miter;stroke-miterlimit:4;stroke-dasharray:none;stroke-dashoffset:0;stroke-opacity:1" />
    <rect
       style="fill:#87cdde;fill-opacity:1;stroke:none;stroke-width:0.5;stroke-linejoin:miter;stroke-miterlimit:4;stroke-dasharray:none;stroke-dashoffset:0;stroke-opacity:1"
       id="rect6186-7-1-1-1-6-0-8-9-9"
       width="155.26755"
       height="19.021729"
       x="511.8978"
       y="412.95847" />
    <rect
       y="412.95847"
       x="690.11298"
       height="19.021729"
       width="26.915037"
       id="rect6186-7-1-1-1-6-0-8-9-6-1"
       style="fill:#e6f5f8;fill-opacity:1;stroke:none;stroke-width:0.5;stroke-linejoin:miter;stroke-miterlimit:4;stroke-dasharray:none;stroke-dashoffset:0;stroke-opacity:1" />
    <flowRoot
       xml:space="preserve"
       id="flowRoot4296"
       style="font-style:normal;font-variant:normal;font-weight:500;font-stretch:normal;font-size:15px;line-height:125%;font-family:'CMU Serif';-inkscape-font-specification:'CMU Serif Medium';letter-spacing:0px;word-spacing:0px;fill:#000000;fill-opacity:1;stroke:none;stroke-width:1px;stroke-linecap:butt;stroke-linejoin:miter;stroke-opacity:1"
       transform="translate(-6.9482042,399.3906)"><flowRegion
         id="flowRegion4298"><rect
           id="rect4300"
           width="847.01288"
           height="127.78429"
           x="-102.02541"
           y="8.3161459" /></flowRegion><flowPara
         id="flowPara4302" /></flowRoot>    <path
       style="fill:none;fill-rule:evenodd;stroke:#000000;stroke-width:1px;stroke-linecap:butt;stroke-linejoin:miter;stroke-opacity:1"
       d="m 283.01331,436.08393 0,-27.22907"
       id="path4304"
       inkscape:connector-curvature="0"
       sodipodi:nodetypes="cc" />
    <text
       xml:space="preserve"
       style="font-style:normal;font-variant:normal;font-weight:500;font-stretch:normal;font-size:15px;line-height:125%;font-family:'CMU Bright';-inkscape-font-specification:'CMU Bright Medium';letter-spacing:0px;word-spacing:0px;fill:#000000;fill-opacity:1;stroke:none;stroke-width:1px;stroke-linecap:butt;stroke-linejoin:miter;stroke-opacity:1"
       x="282.07831"
       y="447.39584"
       id="text4306"
       sodipodi:linespacing="125%"><tspan
         sodipodi:role="line"
         id="tspan4308"
         x="282.07831"
         y="447.39584">42</tspan></text>
    <path
       sodipodi:nodetypes="cc"
       style="fill:none;fill-rule:evenodd;stroke:#000000;stroke-width:1px;stroke-linecap:butt;stroke-linejoin:miter;stroke-opacity:1"
       d="m 668.63911,436.08393 0,-27.22907"
       id="path4304-9"
       inkscape:connector-curvature="0" />
    <text
       xml:space="preserve"
       style="font-style:normal;font-variant:normal;font-weight:500;font-stretch:normal;font-size:15px;line-height:125%;font-family:'CMU Serif';-inkscape-font-specification:'CMU Serif Medium';letter-spacing:0px;word-spacing:0px;fill:#000000;fill-opacity:1;stroke:none;stroke-width:1px;stroke-linecap:butt;stroke-linejoin:miter;stroke-opacity:1"
       x="667.7041"
       y="447.39584"
       id="text4306-7"
       sodipodi:linespacing="125%"><tspan
         sodipodi:role="line"
         id="tspan4308-5"
         x="667.7041"
         y="447.39584"
         style="font-style:normal;font-variant:normal;font-weight:500;font-stretch:normal;font-family:'CMU Bright';-inkscape-font-specification:'CMU Bright Medium'">42</tspan></text>
    <text
       xml:space="preserve"
       style="font-style:normal;font-variant:normal;font-weight:500;font-stretch:normal;font-size:15px;line-height:125%;font-family:'CMU Bright';-inkscape-font-specification:'CMU Bright Medium';letter-spacing:0px;word-spacing:0px;fill:#000000;fill-opacity:1;stroke:none;stroke-width:1px;stroke-linecap:butt;stroke-linejoin:miter;stroke-opacity:1"
       x="125.98013"
       y="447.06586"
       id="text4306-6"
       sodipodi:linespacing="125%"><tspan
         sodipodi:role="line"
         id="tspan4308-4"
         x="125.98013"
         y="447.06586">0</tspan></text>
    <text
       xml:space="preserve"
       style="font-style:normal;font-variant:normal;font-weight:500;font-stretch:normal;font-size:15px;line-height:125%;font-family:'CMU Bright';-inkscape-font-specification:'CMU Bright Medium';letter-spacing:0px;word-spacing:0px;fill:#000000;fill-opacity:1;stroke:none;stroke-width:1px;stroke-linecap:butt;stroke-linejoin:miter;stroke-opacity:1"
       x="323.59143"
       y="447.06586"
       id="text4354"
       sodipodi:linespacing="125%"><tspan
         sodipodi:role="line"
         id="tspan4356"
         x="323.59143"
         y="447.06586">50</tspan></text>
    <text
       xml:space="preserve"
       style="font-style:normal;font-variant:normal;font-weight:500;font-stretch:normal;font-size:15px;line-height:125%;font-family:'CMU Bright';-inkscape-font-specification:'CMU Bright Medium';letter-spacing:0px;word-spacing:0px;fill:#000000;fill-opacity:1;stroke:none;stroke-width:1px;stroke-linecap:butt;stroke-linejoin:miter;stroke-opacity:1"
       x="511.40021"
       y="447.39584"
       id="text4306-6-6"
       sodipodi:linespacing="125%"><tspan
         sodipodi:role="line"
         id="tspan4308-4-3"
         x="511.40021"
         y="447.39584">0</tspan></text>
    <text
       xml:space="preserve"
       style="font-style:normal;font-variant:normal;font-weight:500;font-stretch:normal;font-size:15px;line-height:125%;font-family:'CMU Bright';-inkscape-font-specification:'CMU Bright Medium';letter-spacing:0px;word-spacing:0px;fill:#000000;fill-opacity:1;stroke:none;stroke-width:1px;stroke-linecap:butt;stroke-linejoin:miter;stroke-opacity:1"
       x="708.9472"
       y="447.39584"
       id="text4354-7"
       sodipodi:linespacing="125%"><tspan
         sodipodi:role="line"
         id="tspan4356-9"
         x="708.9472"
         y="447.39584">50</tspan></text>
    <text
       xml:space="preserve"
       style="font-style:normal;font-variant:normal;font-weight:500;font-stretch:normal;font-size:10px;line-height:125%;font-family:'CMU Serif';-inkscape-font-specification:'CMU Serif Medium';letter-spacing:0px;word-spacing:0px;fill:#000000;fill-opacity:1;stroke:none;stroke-width:1px;stroke-linecap:butt;stroke-linejoin:miter;stroke-opacity:1"
       x="-8.1732044"
       y="447.06586"
       id="text4382"
       sodipodi:linespacing="125%"><tspan
         sodipodi:role="line"
         id="tspan4384"
         x="-8.1732044"
         y="447.06586"
         style="font-style:normal;font-variant:normal;font-weight:500;font-stretch:normal;font-size:12.5px;font-family:'CMU Bright';-inkscape-font-specification:'CMU Bright Medium'">Read sequence position:</tspan></text>
  </g>
</svg>
